2019-02-19 16:04:16,545 INFO  - main() is executed
2019-02-19 16:04:16,658 ERROR - connection is executed
2019-02-19 16:04:16,661 WARN  - query is executed
2019-02-19 16:04:16,661 FATAL - resultset is executed
2019-02-19 16:04:16,661 WARN  - bufferedreader is executed
2019-02-19 16:04:16,661 FATAL - read the data from csv file
2019-02-19 16:04:16,661 FATAL - read the data from csv file
2019-02-19 16:04:16,732 FATAL - read the data from csv file
2019-02-19 16:04:16,798 FATAL - read the data from csv file
2019-02-19 16:04:16,897 FATAL - read the data from csv file
2019-02-19 16:04:16,919 FATAL - read the data from csv file
2019-02-26 14:44:41,660 INFO  - main() is executed
2019-02-26 14:44:41,788 ERROR - connection is executed
2019-02-26 14:44:41,796 WARN  - query is executed
2019-02-26 14:44:41,797 FATAL - resultset is executed
2019-02-26 14:44:41,798 WARN  - bufferedreader is executed
2019-02-26 14:44:41,799 FATAL - read the data from csv file
2019-02-26 14:44:41,799 FATAL - read the data from csv file
